info face="ConcordeNova" size=41 bold=0 italic=0 charset="" unicode=0 stretchH=100 smooth=1 aa=1 padding=0,0,0,0 spacing=2,2
common lineHeight=40 base=31 scaleW=256 scaleH=256 pages=1 packed=0
page id=0 file="ConcordeNova.png"
chars count=95
char id=124 x=2 y=2 width=3 height=42 xoffset=3 yoffset=0 xadvance=9 page=0 chnl=0 letter="|"
char id=123 x=7 y=2 width=11 height=40 xoffset=2 yoffset=1 xadvance=14 page=0 chnl=0 letter="{"
char id=125 x=20 y=2 width=11 height=40 xoffset=1 yoffset=1 xadvance=14 page=0 chnl=0 letter="}"
char id=74 x=33 y=2 width=11 height=40 xoffset=0 yoffset=1 xadvance=11 page=0 chnl=0 letter="J"
char id=41 x=46 y=2 width=10 height=40 xoffset=-1 yoffset=1 xadvance=10 page=0 chnl=0 letter=")"
char id=40 x=58 y=2 width=9 height=40 xoffset=2 yoffset=1 xadvance=10 page=0 chnl=0 letter="("
char id=81 x=69 y=2 width=25 height=39 xoffset=1 yoffset=1 xadvance=26 page=0 chnl=0 letter="Q"
char id=91 x=96 y=2 width=8 height=39 xoffset=2 yoffset=2 xadvance=10 page=0 chnl=0 letter="["
char id=93 x=106 y=2 width=8 height=39 xoffset=0 yoffset=2 xadvance=10 page=0 chnl=0 letter="]"
char id=36 x=116 y=2 width=17 height=38 xoffset=1 yoffset=-2 xadvance=18 page=0 chnl=0 letter="$"
char id=106 x=135 y=2 width=9 height=38 xoffset=-1 yoffset=2 xadvance=10 page=0 chnl=0 letter="j"
char id=64 x=146 y=2 width=32 height=36 xoffset=2 yoffset=1 xadvance=36 page=0 chnl=0 letter="@"
char id=107 x=180 y=2 width=21 height=33 xoffset=0 yoffset=-1 xadvance=20 page=0 chnl=0 letter="k"
char id=104 x=203 y=2 width=20 height=33 xoffset=0 yoffset=-1 xadvance=20 page=0 chnl=0 letter="h"
char id=98 x=225 y=2 width=19 height=33 xoffset=0 yoffset=-1 xadvance=19 page=0 chnl=0 letter="b"
char id=100 x=2 y=46 width=18 height=33 xoffset=1 yoffset=-1 xadvance=19 page=0 chnl=0 letter="d"
char id=102 x=22 y=46 width=12 height=33 xoffset=1 yoffset=-1 xadvance=11 page=0 chnl=0 letter="f"
char id=108 x=36 y=46 width=9 height=33 xoffset=1 yoffset=-1 xadvance=10 page=0 chnl=0 letter="l"
char id=87 x=47 y=46 width=34 height=31 xoffset=0 yoffset=1 xadvance=33 page=0 chnl=0 letter="W"
char id=77 x=83 y=46 width=31 height=31 xoffset=0 yoffset=1 xadvance=31 page=0 chnl=0 letter="M"
char id=37 x=116 y=46 width=29 height=31 xoffset=1 yoffset=1 xadvance=30 page=0 chnl=0 letter="%"
char id=60 x=147 y=46 width=28 height=31 xoffset=0 yoffset=1 xadvance=27 page=0 chnl=0 letter="<"
char id=62 x=177 y=46 width=28 height=31 xoffset=0 yoffset=1 xadvance=27 page=0 chnl=0 letter=">"
char id=71 x=207 y=46 width=26 height=31 xoffset=1 yoffset=1 xadvance=27 page=0 chnl=0 letter="G"
char id=68 x=2 y=81 width=26 height=31 xoffset=0 yoffset=1 xadvance=27 page=0 chnl=0 letter="D"
char id=85 x=30 y=81 width=26 height=31 xoffset=0 yoffset=1 xadvance=25 page=0 chnl=0 letter="U"
char id=72 x=58 y=81 width=26 height=31 xoffset=0 yoffset=1 xadvance=26 page=0 chnl=0 letter="H"
char id=86 x=86 y=81 width=26 height=31 xoffset=-1 yoffset=1 xadvance=23 page=0 chnl=0 letter="V"
char id=65 x=114 y=81 width=25 height=31 xoffset=0 yoffset=1 xadvance=24 page=0 chnl=0 letter="A"
char id=79 x=141 y=81 width=25 height=31 xoffset=1 yoffset=1 xadvance=26 page=0 chnl=0 letter="O"
char id=78 x=168 y=81 width=25 height=31 xoffset=0 yoffset=1 xadvance=25 page=0 chnl=0 letter="N"
char id=88 x=195 y=81 width=25 height=31 xoffset=0 yoffset=1 xadvance=24 page=0 chnl=0 letter="X"
char id=75 x=222 y=81 width=24 height=31 xoffset=0 yoffset=1 xadvance=23 page=0 chnl=0 letter="K"
char id=82 x=2 y=114 width=24 height=31 xoffset=0 yoffset=1 xadvance=23 page=0 chnl=0 letter="R"
char id=67 x=28 y=114 width=23 height=31 xoffset=1 yoffset=1 xadvance=23 page=0 chnl=0 letter="C"
char id=66 x=53 y=114 width=22 height=31 xoffset=0 yoffset=1 xadvance=23 page=0 chnl=0 letter="B"
char id=84 x=77 y=114 width=22 height=31 xoffset=0 yoffset=1 xadvance=21 page=0 chnl=0 letter="T"
char id=89 x=101 y=114 width=22 height=31 xoffset=0 yoffset=1 xadvance=21 page=0 chnl=0 letter="Y"
char id=69 x=125 y=114 width=21 height=31 xoffset=0 yoffset=1 xadvance=21 page=0 chnl=0 letter="E"
char id=90 x=148 y=114 width=21 height=31 xoffset=0 yoffset=1 xadvance=21 page=0 chnl=0 letter="Z"
char id=76 x=171 y=114 width=21 height=31 xoffset=0 yoffset=1 xadvance=20 page=0 chnl=0 letter="L"
char id=80 x=194 y=114 width=20 height=31 xoffset=0 yoffset=1 xadvance=20 page=0 chnl=0 letter="P"
char id=70 x=216 y=114 width=19 height=31 xoffset=0 yoffset=1 xadvance=19 page=0 chnl=0 letter="F"
char id=52 x=2 y=147 width=18 height=31 xoffset=0 yoffset=2 xadvance=18 page=0 chnl=0 letter="4"
char id=83 x=22 y=147 width=18 height=31 xoffset=1 yoffset=1 xadvance=20 page=0 chnl=0 letter="S"
char id=57 x=42 y=147 width=18 height=31 xoffset=0 yoffset=1 xadvance=18 page=0 chnl=0 letter="9"
char id=56 x=62 y=147 width=17 height=31 xoffset=1 yoffset=1 xadvance=18 page=0 chnl=0 letter="8"
char id=48 x=81 y=147 width=17 height=31 xoffset=1 yoffset=1 xadvance=18 page=0 chnl=0 letter="0"
char id=54 x=100 y=147 width=17 height=31 xoffset=1 yoffset=1 xadvance=18 page=0 chnl=0 letter="6"
char id=51 x=119 y=147 width=17 height=31 xoffset=0 yoffset=1 xadvance=18 page=0 chnl=0 letter="3"
char id=50 x=138 y=147 width=17 height=31 xoffset=1 yoffset=1 xadvance=18 page=0 chnl=0 letter="2"
char id=53 x=157 y=147 width=16 height=31 xoffset=1 yoffset=1 xadvance=18 page=0 chnl=0 letter="5"
char id=63 x=175 y=147 width=16 height=31 xoffset=2 yoffset=1 xadvance=17 page=0 chnl=0 letter="?"
char id=55 x=193 y=147 width=16 height=31 xoffset=2 yoffset=1 xadvance=18 page=0 chnl=0 letter="7"
char id=73 x=211 y=147 width=11 height=31 xoffset=0 yoffset=1 xadvance=11 page=0 chnl=0 letter="I"
char id=33 x=224 y=147 width=5 height=31 xoffset=2 yoffset=1 xadvance=8 page=0 chnl=0 letter="!"
char id=35 x=2 y=180 width=25 height=30 xoffset=1 yoffset=1 xadvance=27 page=0 chnl=0 letter="#"
char id=103 x=29 y=180 width=19 height=30 xoffset=0 yoffset=10 xadvance=18 page=0 chnl=0 letter="g"
char id=113 x=50 y=180 width=18 height=30 xoffset=1 yoffset=10 xadvance=18 page=0 chnl=0 letter="q"
char id=121 x=70 y=180 width=18 height=30 xoffset=0 yoffset=10 xadvance=17 page=0 chnl=0 letter="y"
char id=112 x=90 y=180 width=18 height=30 xoffset=1 yoffset=10 xadvance=19 page=0 chnl=0 letter="p"
char id=49 x=110 y=180 width=13 height=30 xoffset=3 yoffset=2 xadvance=18 page=0 chnl=0 letter="1"
char id=105 x=125 y=180 width=9 height=30 xoffset=1 yoffset=2 xadvance=10 page=0 chnl=0 letter="i"
char id=38 x=136 y=180 width=26 height=29 xoffset=1 yoffset=3 xadvance=26 page=0 chnl=0 letter="&"
char id=92 x=164 y=180 width=13 height=29 xoffset=0 yoffset=2 xadvance=12 page=0 chnl=0 letter="\"
char id=47 x=179 y=180 width=13 height=29 xoffset=0 yoffset=2 xadvance=12 page=0 chnl=0 letter="/"
char id=116 x=194 y=180 width=12 height=29 xoffset=0 yoffset=3 xadvance=11 page=0 chnl=0 letter="t"
char id=59 x=208 y=180 width=6 height=26 xoffset=2 yoffset=11 xadvance=8 page=0 chnl=0 letter=";"
char id=43 x=216 y=180 width=25 height=24 xoffset=1 yoffset=7 xadvance=27 page=0 chnl=0 letter="+"
char id=109 x=2 y=212 width=31 height=22 xoffset=0 yoffset=10 xadvance=31 page=0 chnl=0 letter="m"
char id=110 x=35 y=212 width=19 height=22 xoffset=1 yoffset=10 xadvance=20 page=0 chnl=0 letter="n"
char id=117 x=56 y=212 width=19 height=22 xoffset=1 yoffset=10 xadvance=20 page=0 chnl=0 letter="u"
char id=120 x=77 y=212 width=19 height=22 xoffset=0 yoffset=10 xadvance=18 page=0 chnl=0 letter="x"
char id=97 x=98 y=212 width=17 height=22 xoffset=1 yoffset=10 xadvance=17 page=0 chnl=0 letter="a"
char id=111 x=117 y=212 width=17 height=22 xoffset=1 yoffset=10 xadvance=18 page=0 chnl=0 letter="o"
char id=122 x=136 y=212 width=16 height=22 xoffset=0 yoffset=10 xadvance=16 page=0 chnl=0 letter="z"
char id=101 x=154 y=212 width=15 height=22 xoffset=1 yoffset=10 xadvance=17 page=0 chnl=0 letter="e"
char id=99 x=171 y=212 width=15 height=22 xoffset=1 yoffset=10 xadvance=15 page=0 chnl=0 letter="c"
char id=114 x=188 y=212 width=14 height=22 xoffset=0 yoffset=10 xadvance=13 page=0 chnl=0 letter="r"
char id=115 x=204 y=212 width=13 height=22 xoffset=1 yoffset=10 xadvance=14 page=0 chnl=0 letter="s"
char id=58 x=219 y=212 width=6 height=21 xoffset=2 yoffset=11 xadvance=8 page=0 chnl=0 letter=":"
char id=119 x=2 y=236 width=28 height=20 xoffset=0 yoffset=11 xadvance=27 page=0 chnl=0 letter="w"
char id=118 x=32 y=236 width=18 height=20 xoffset=0 yoffset=11 xadvance=17 page=0 chnl=0 letter="v"
char id=42 x=52 y=236 width=14 height=16 xoffset=0 yoffset=2 xadvance=13 page=0 chnl=0 letter="*"
char id=94 x=68 y=236 width=18 height=15 xoffset=6 yoffset=2 xadvance=29 page=0 chnl=0 letter="^"
char id=34 x=88 y=236 width=12 height=13 xoffset=2 yoffset=0 xadvance=16 page=0 chnl=0 letter="""
char id=39 x=102 y=236 width=5 height=13 xoffset=2 yoffset=0 xadvance=8 page=0 chnl=0 letter="'"
char id=44 x=109 y=236 width=7 height=11 xoffset=0 yoffset=26 xadvance=6 page=0 chnl=0 letter=","
char id=61 x=118 y=236 width=28 height=10 xoffset=0 yoffset=14 xadvance=27 page=0 chnl=0 letter="="
char id=96 x=148 y=236 width=9 height=7 xoffset=1 yoffset=1 xadvance=11 page=0 chnl=0 letter="`"
char id=126 x=159 y=236 width=20 height=6 xoffset=5 yoffset=16 xadvance=29 page=0 chnl=0 letter="~"
char id=46 x=181 y=236 width=5 height=6 xoffset=1 yoffset=26 xadvance=6 page=0 chnl=0 letter="."
char id=45 x=188 y=236 width=8 height=4 xoffset=1 yoffset=19 xadvance=10 page=0 chnl=0 letter="-"
char id=95 x=198 y=236 width=22 height=3 xoffset=-1 yoffset=34 xadvance=20 page=0 chnl=0 letter="_"
char id=32 x=222 y=236 width=0 height=0 xoffset=11 yoffset=151 xadvance=11 page=0 chnl=0 letter="space"
kernings count=916
kerning first=74 second=74 amount=2
kerning first=74 second=81 amount=1
kerning first=74 second=87 amount=1
kerning first=74 second=77 amount=2
kerning first=74 second=71 amount=1
kerning first=74 second=68 amount=2
kerning first=74 second=85 amount=2
kerning first=74 second=72 amount=2
kerning first=74 second=86 amount=1
kerning first=74 second=65 amount=-2
kerning first=74 second=79 amount=1
kerning first=74 second=78 amount=2
kerning first=74 second=88 amount=1
kerning first=74 second=75 amount=2
kerning first=74 second=82 amount=2
kerning first=74 second=67 amount=1
kerning first=74 second=66 amount=2
kerning first=74 second=84 amount=1
kerning first=74 second=89 amount=1
kerning first=74 second=69 amount=2
kerning first=74 second=90 amount=2
kerning first=74 second=76 amount=2
kerning first=74 second=80 amount=2
kerning first=74 second=70 amount=2
kerning first=74 second=83 amount=2
kerning first=74 second=73 amount=2
kerning first=74 second=121 amount=-1
kerning first=74 second=47 amount=2
kerning first=74 second=119 amount=-1
kerning first=74 second=118 amount=-1
kerning first=81 second=85 amount=1
kerning first=98 second=100 amount=1
kerning first=98 second=113 amount=1
kerning first=98 second=111 amount=1
kerning first=98 second=101 amount=1
kerning first=98 second=99 amount=1
kerning first=102 second=41 amount=2
kerning first=102 second=93 amount=2
kerning first=102 second=42 amount=2
kerning first=87 second=81 amount=-1
kerning first=87 second=106 amount=-1
kerning first=87 second=107 amount=-1
kerning first=87 second=104 amount=-1
kerning first=87 second=98 amount=-1
kerning first=87 second=100 amount=-3
kerning first=87 second=102 amount=-1
kerning first=87 second=108 amount=-1
kerning first=87 second=87 amount=1
kerning first=87 second=77 amount=1
kerning first=87 second=71 amount=-1
kerning first=87 second=68 amount=1
kerning first=87 second=85 amount=1
kerning first=87 second=72 amount=1
kerning first=87 second=86 amount=1
kerning first=87 second=65 amount=-4
kerning first=87 second=79 amount=-1
kerning first=87 second=78 amount=1
kerning first=87 second=88 amount=-1
kerning first=87 second=75 amount=1
kerning first=87 second=82 amount=1
kerning first=87 second=67 amount=-1
kerning first=87 second=66 amount=1
kerning first=87 second=84 amount=1
kerning first=87 second=89 amount=1
kerning first=87 second=69 amount=1
kerning first=87 second=90 amount=-1
kerning first=87 second=76 amount=1
kerning first=87 second=80 amount=1
kerning first=87 second=70 amount=1
kerning first=87 second=83 amount=1
kerning first=87 second=73 amount=1
kerning first=87 second=103 amount=-3
kerning first=87 second=113 amount=-3
kerning first=87 second=121 amount=-2
kerning first=87 second=112 amount=-3
kerning first=87 second=105 amount=-2
kerning first=87 second=116 amount=-1
kerning first=87 second=109 amount=-3
kerning first=87 second=110 amount=-3
kerning first=87 second=117 amount=-3
kerning first=87 second=120 amount=-3
kerning first=87 second=97 amount=-3
kerning first=87 second=111 amount=-3
kerning first=87 second=122 amount=-3
kerning first=87 second=101 amount=-3
kerning first=87 second=99 amount=-3
kerning first=87 second=114 amount=-3
kerning first=87 second=115 amount=-3
kerning first=87 second=118 amount=-2
kerning first=87 second=44 amount=-3
kerning first=87 second=46 amount=-3
kerning first=87 second=45 amount=-3
kerning first=77 second=74 amount=2
kerning first=77 second=81 amount=1
kerning first=77 second=87 amount=1
kerning first=77 second=77 amount=2
kerning first=77 second=71 amount=1
kerning first=77 second=68 amount=2
kerning first=77 second=85 amount=2
kerning first=77 second=72 amount=2
kerning first=77 second=86 amount=1
kerning first=77 second=79 amount=1
kerning first=77 second=78 amount=2
kerning first=77 second=88 amount=1
kerning first=77 second=75 amount=2
kerning first=77 second=82 amount=2
kerning first=77 second=67 amount=1
kerning first=77 second=66 amount=2
kerning first=77 second=84 amount=1
kerning first=77 second=89 amount=1
kerning first=77 second=69 amount=2
kerning first=77 second=90 amount=2
kerning first=77 second=76 amount=2
kerning first=77 second=80 amount=2
kerning first=77 second=70 amount=2
kerning first=77 second=83 amount=2
kerning first=77 second=73 amount=2
kerning first=77 second=121 amount=-1
kerning first=77 second=47 amount=2
kerning first=77 second=119 amount=-1
kerning first=77 second=118 amount=-1
kerning first=71 second=74 amount=1
kerning first=71 second=87 amount=-1
kerning first=71 second=77 amount=1
kerning first=71 second=68 amount=1
kerning first=71 second=85 amount=1
kerning first=71 second=72 amount=1
kerning first=71 second=86 amount=-1
kerning first=71 second=65 amount=-1
kerning first=71 second=78 amount=1
kerning first=71 second=88 amount=-1
kerning first=71 second=75 amount=1
kerning first=71 second=82 amount=1
kerning first=71 second=66 amount=1
kerning first=71 second=84 amount=-1
kerning first=71 second=89 amount=-1
kerning first=71 second=69 amount=1
kerning first=71 second=90 amount=1
kerning first=71 second=76 amount=1
kerning first=71 second=80 amount=1
kerning first=71 second=70 amount=1
kerning first=71 second=83 amount=1
kerning first=71 second=73 amount=1
kerning first=71 second=121 amount=-1
kerning first=71 second=119 amount=-1
kerning first=71 second=118 amount=-1
kerning first=68 second=74 amount=1
kerning first=68 second=81 amount=2
kerning first=68 second=87 amount=-1
kerning first=68 second=77 amount=1
kerning first=68 second=71 amount=2
kerning first=68 second=68 amount=1
kerning first=68 second=85 amount=1
kerning first=68 second=72 amount=1
kerning first=68 second=86 amount=-1
kerning first=68 second=65 amount=-2
kerning first=68 second=79 amount=2
kerning first=68 second=78 amount=1
kerning first=68 second=88 amount=-2
kerning first=68 second=75 amount=1
kerning first=68 second=82 amount=1
kerning first=68 second=67 amount=2
kerning first=68 second=66 amount=1
kerning first=68 second=84 amount=-1
kerning first=68 second=89 amount=-2
kerning first=68 second=69 amount=1
kerning first=68 second=76 amount=1
kerning first=68 second=80 amount=1
kerning first=68 second=70 amount=1
kerning first=68 second=83 amount=1
kerning first=68 second=73 amount=1
kerning first=85 second=74 amount=2
kerning first=85 second=81 amount=1
kerning first=85 second=100 amount=-1
kerning first=85 second=87 amount=1
kerning first=85 second=77 amount=2
kerning first=85 second=71 amount=1
kerning first=85 second=68 amount=2
kerning first=85 second=85 amount=2
kerning first=85 second=72 amount=2
kerning first=85 second=86 amount=1
kerning first=85 second=65 amount=-2
kerning first=85 second=79 amount=1
kerning first=85 second=78 amount=2
kerning first=85 second=75 amount=2
kerning first=85 second=82 amount=2
kerning first=85 second=67 amount=1
kerning first=85 second=66 amount=2
kerning first=85 second=84 amount=1
kerning first=85 second=89 amount=1
kerning first=85 second=69 amount=2
kerning first=85 second=90 amount=2
kerning first=85 second=76 amount=2
kerning first=85 second=80 amount=2
kerning first=85 second=70 amount=2
kerning first=85 second=83 amount=2
kerning first=85 second=73 amount=2
kerning first=85 second=121 amount=-1
kerning first=85 second=112 amount=-1
kerning first=85 second=47 amount=2
kerning first=85 second=116 amount=-1
kerning first=85 second=109 amount=-1
kerning first=85 second=110 amount=-1
kerning first=85 second=97 amount=-1
kerning first=85 second=111 amount=-1
kerning first=85 second=101 amount=-1
kerning first=85 second=99 amount=-1
kerning first=85 second=114 amount=-1
kerning first=85 second=119 amount=-1
kerning first=85 second=118 amount=-1
kerning first=72 second=74 amount=2
kerning first=72 second=81 amount=1
kerning first=72 second=87 amount=1
kerning first=72 second=77 amount=2
kerning first=72 second=71 amount=1
kerning first=72 second=68 amount=2
kerning first=72 second=85 amount=2
kerning first=72 second=72 amount=2
kerning first=72 second=86 amount=1
kerning first=72 second=79 amount=1
kerning first=72 second=78 amount=2
kerning first=72 second=88 amount=1
kerning first=72 second=75 amount=2
kerning first=72 second=82 amount=2
kerning first=72 second=67 amount=1
kerning first=72 second=66 amount=2
kerning first=72 second=84 amount=1
kerning first=72 second=89 amount=1
kerning first=72 second=69 amount=2
kerning first=72 second=90 amount=2
kerning first=72 second=76 amount=2
kerning first=72 second=80 amount=2
kerning first=72 second=70 amount=2
kerning first=72 second=83 amount=2
kerning first=72 second=73 amount=2
kerning first=72 second=121 amount=-1
kerning first=72 second=47 amount=2
kerning first=72 second=119 amount=-1
kerning first=72 second=118 amount=-1
kerning first=86 second=81 amount=-1
kerning first=86 second=106 amount=-1
kerning first=86 second=107 amount=-1
kerning first=86 second=104 amount=-1
kerning first=86 second=98 amount=-1
kerning first=86 second=100 amount=-3
kerning first=86 second=102 amount=-1
kerning first=86 second=108 amount=-1
kerning first=86 second=87 amount=1
kerning first=86 second=77 amount=1
kerning first=86 second=71 amount=-1
kerning first=86 second=68 amount=1
kerning first=86 second=85 amount=1
kerning first=86 second=72 amount=1
kerning first=86 second=86 amount=1
kerning first=86 second=65 amount=-4
kerning first=86 second=79 amount=-1
kerning first=86 second=78 amount=1
kerning first=86 second=88 amount=-1
kerning first=86 second=75 amount=1
kerning first=86 second=82 amount=1
kerning first=86 second=67 amount=-1
kerning first=86 second=66 amount=1
kerning first=86 second=84 amount=1
kerning first=86 second=89 amount=1
kerning first=86 second=69 amount=1
kerning first=86 second=90 amount=-1
kerning first=86 second=76 amount=1
kerning first=86 second=80 amount=1
kerning first=86 second=70 amount=1
kerning first=86 second=83 amount=1
kerning first=86 second=73 amount=1
kerning first=86 second=103 amount=-3
kerning first=86 second=113 amount=-3
kerning first=86 second=121 amount=-2
kerning first=86 second=112 amount=-3
kerning first=86 second=105 amount=-2
kerning first=86 second=116 amount=-1
kerning first=86 second=109 amount=-3
kerning first=86 second=110 amount=-3
kerning first=86 second=117 amount=-3
kerning first=86 second=120 amount=-3
kerning first=86 second=97 amount=-3
kerning first=86 second=111 amount=-3
kerning first=86 second=122 amount=-3
kerning first=86 second=101 amount=-3
kerning first=86 second=99 amount=-3
kerning first=86 second=114 amount=-3
kerning first=86 second=115 amount=-3
kerning first=86 second=119 amount=-2
kerning first=86 second=118 amount=-2
kerning first=86 second=44 amount=-3
kerning first=86 second=46 amount=-3
kerning first=86 second=45 amount=-3
kerning first=65 second=74 amount=-1
kerning first=65 second=81 amount=-1
kerning first=65 second=100 amount=-1
kerning first=65 second=87 amount=-3
kerning first=65 second=71 amount=-1
kerning first=65 second=86 amount=-3
kerning first=65 second=65 amount=1
kerning first=65 second=79 amount=-1
kerning first=65 second=67 amount=-1
kerning first=65 second=84 amount=-3
kerning first=65 second=89 amount=-3
kerning first=65 second=63 amount=-3
kerning first=65 second=103 amount=-1
kerning first=65 second=113 amount=-1
kerning first=65 second=121 amount=-3
kerning first=65 second=116 amount=-1
kerning first=65 second=117 amount=-1
kerning first=65 second=97 amount=-1
kerning first=65 second=111 amount=-1
kerning first=65 second=101 amount=-1
kerning first=65 second=99 amount=-1
kerning first=65 second=119 amount=-3
kerning first=65 second=118 amount=-3
kerning first=79 second=74 amount=1
kerning first=79 second=81 amount=2
kerning first=79 second=87 amount=-1
kerning first=79 second=77 amount=1
kerning first=79 second=71 amount=2
kerning first=79 second=68 amount=1
kerning first=79 second=85 amount=1
kerning first=79 second=72 amount=1
kerning first=79 second=86 amount=-1
kerning first=79 second=65 amount=-2
kerning first=79 second=79 amount=2
kerning first=79 second=78 amount=1
kerning first=79 second=88 amount=-2
kerning first=79 second=75 amount=1
kerning first=79 second=82 amount=1
kerning first=79 second=67 amount=2
kerning first=79 second=66 amount=1
kerning first=79 second=84 amount=-1
kerning first=79 second=89 amount=-2
kerning first=79 second=69 amount=1
kerning first=79 second=76 amount=1
kerning first=79 second=80 amount=1
kerning first=79 second=70 amount=1
kerning first=79 second=83 amount=1
kerning first=79 second=73 amount=1
kerning first=78 second=74 amount=2
kerning first=78 second=81 amount=1
kerning first=78 second=87 amount=1
kerning first=78 second=77 amount=2
kerning first=78 second=71 amount=1
kerning first=78 second=68 amount=2
kerning first=78 second=85 amount=2
kerning first=78 second=72 amount=2
kerning first=78 second=86 amount=1
kerning first=78 second=65 amount=-2
kerning first=78 second=79 amount=1
kerning first=78 second=78 amount=2
kerning first=78 second=88 amount=1
kerning first=78 second=75 amount=2
kerning first=78 second=82 amount=2
kerning first=78 second=67 amount=1
kerning first=78 second=66 amount=2
kerning first=78 second=84 amount=1
kerning first=78 second=89 amount=1
kerning first=78 second=69 amount=2
kerning first=78 second=90 amount=2
kerning first=78 second=76 amount=2
kerning first=78 second=80 amount=2
kerning first=78 second=70 amount=2
kerning first=78 second=83 amount=2
kerning first=78 second=73 amount=2
kerning first=78 second=121 amount=-1
kerning first=78 second=47 amount=2
kerning first=78 second=119 amount=-1
kerning first=78 second=118 amount=-1
kerning first=88 second=81 amount=-1
kerning first=88 second=106 amount=-1
kerning first=88 second=107 amount=-1
kerning first=88 second=104 amount=-1
kerning first=88 second=98 amount=-1
kerning first=88 second=100 amount=-1
kerning first=88 second=102 amount=-1
kerning first=88 second=108 amount=-1
kerning first=88 second=87 amount=-1
kerning first=88 second=71 amount=-1
kerning first=88 second=86 amount=-1
kerning first=88 second=79 amount=-1
kerning first=88 second=67 amount=-1
kerning first=88 second=84 amount=-1
kerning first=88 second=89 amount=-1
kerning first=88 second=103 amount=-1
kerning first=88 second=113 amount=-1
kerning first=88 second=121 amount=-3
kerning first=88 second=112 amount=-1
kerning first=88 second=105 amount=-1
kerning first=88 second=116 amount=-1
kerning first=88 second=109 amount=-1
kerning first=88 second=110 amount=-1
kerning first=88 second=117 amount=-1
kerning first=88 second=120 amount=-1
kerning first=88 second=97 amount=-1
kerning first=88 second=111 amount=-1
kerning first=88 second=122 amount=-1
kerning first=88 second=101 amount=-1
kerning first=88 second=99 amount=-1
kerning first=88 second=114 amount=-1
kerning first=88 second=115 amount=-1
kerning first=88 second=119 amount=-3
kerning first=88 second=118 amount=-3
kerning first=75 second=81 amount=-1
kerning first=75 second=106 amount=-1
kerning first=75 second=107 amount=-1
kerning first=75 second=104 amount=-1
kerning first=75 second=98 amount=-1
kerning first=75 second=100 amount=-1
kerning first=75 second=102 amount=-1
kerning first=75 second=108 amount=-1
kerning first=75 second=87 amount=-1
kerning first=75 second=71 amount=-1
kerning first=75 second=86 amount=-1
kerning first=75 second=79 amount=-1
kerning first=75 second=67 amount=-1
kerning first=75 second=84 amount=-1
kerning first=75 second=89 amount=-1
kerning first=75 second=103 amount=-1
kerning first=75 second=113 amount=-1
kerning first=75 second=121 amount=-3
kerning first=75 second=112 amount=-1
kerning first=75 second=105 amount=-1
kerning first=75 second=116 amount=-1
kerning first=75 second=109 amount=-1
kerning first=75 second=110 amount=-1
kerning first=75 second=117 amount=-1
kerning first=75 second=120 amount=-1
kerning first=75 second=97 amount=-1
kerning first=75 second=111 amount=-1
kerning first=75 second=122 amount=-1
kerning first=75 second=101 amount=-1
kerning first=75 second=99 amount=-1
kerning first=75 second=114 amount=-1
kerning first=75 second=115 amount=-1
kerning first=75 second=119 amount=-3
kerning first=75 second=118 amount=-3
kerning first=82 second=74 amount=1
kerning first=82 second=87 amount=-1
kerning first=82 second=77 amount=1
kerning first=82 second=68 amount=1
kerning first=82 second=85 amount=1
kerning first=82 second=72 amount=1
kerning first=82 second=86 amount=-1
kerning first=82 second=65 amount=1
kerning first=82 second=78 amount=1
kerning first=82 second=75 amount=1
kerning first=82 second=82 amount=1
kerning first=82 second=66 amount=1
kerning first=82 second=84 amount=-1
kerning first=82 second=89 amount=-1
kerning first=82 second=69 amount=1
kerning first=82 second=90 amount=1
kerning first=82 second=76 amount=1
kerning first=82 second=80 amount=1
kerning first=82 second=70 amount=1
kerning first=82 second=83 amount=1
kerning first=82 second=73 amount=1
kerning first=82 second=121 amount=-1
kerning first=82 second=119 amount=-1
kerning first=82 second=118 amount=-1
kerning first=67 second=74 amount=2
kerning first=67 second=81 amount=1
kerning first=67 second=87 amount=1
kerning first=67 second=77 amount=2
kerning first=67 second=71 amount=1
kerning first=67 second=68 amount=2
kerning first=67 second=85 amount=2
kerning first=67 second=72 amount=2
kerning first=67 second=86 amount=1
kerning first=67 second=79 amount=1
kerning first=67 second=78 amount=2
kerning first=67 second=88 amount=1
kerning first=67 second=75 amount=2
kerning first=67 second=82 amount=2
kerning first=67 second=67 amount=1
kerning first=67 second=66 amount=2
kerning first=67 second=84 amount=1
kerning first=67 second=89 amount=1
kerning first=67 second=69 amount=2
kerning first=67 second=90 amount=2
kerning first=67 second=76 amount=2
kerning first=67 second=80 amount=2
kerning first=67 second=70 amount=2
kerning first=67 second=83 amount=2
kerning first=67 second=73 amount=2
kerning first=67 second=121 amount=-1
kerning first=67 second=47 amount=2
kerning first=67 second=119 amount=-1
kerning first=67 second=118 amount=-1
kerning first=66 second=74 amount=1
kerning first=66 second=87 amount=-1
kerning first=66 second=77 amount=1
kerning first=66 second=68 amount=1
kerning first=66 second=85 amount=1
kerning first=66 second=72 amount=1
kerning first=66 second=86 amount=-1
kerning first=66 second=65 amount=-1
kerning first=66 second=78 amount=1
kerning first=66 second=88 amount=-1
kerning first=66 second=75 amount=1
kerning first=66 second=82 amount=1
kerning first=66 second=66 amount=1
kerning first=66 second=84 amount=-1
kerning first=66 second=89 amount=-1
kerning first=66 second=69 amount=1
kerning first=66 second=90 amount=1
kerning first=66 second=76 amount=1
kerning first=66 second=80 amount=1
kerning first=66 second=70 amount=1
kerning first=66 second=83 amount=1
kerning first=66 second=73 amount=1
kerning first=66 second=121 amount=-1
kerning first=66 second=119 amount=-1
kerning first=66 second=118 amount=-1
kerning first=84 second=81 amount=-1
kerning first=84 second=106 amount=-1
kerning first=84 second=107 amount=-1
kerning first=84 second=104 amount=-1
kerning first=84 second=98 amount=-1
kerning first=84 second=100 amount=-3
kerning first=84 second=102 amount=-1
kerning first=84 second=108 amount=-1
kerning first=84 second=87 amount=1
kerning first=84 second=77 amount=1
kerning first=84 second=71 amount=-1
kerning first=84 second=68 amount=1
kerning first=84 second=85 amount=1
kerning first=84 second=72 amount=1
kerning first=84 second=86 amount=1
kerning first=84 second=65 amount=-3
kerning first=84 second=79 amount=-1
kerning first=84 second=78 amount=1
kerning first=84 second=88 amount=-1
kerning first=84 second=75 amount=1
kerning first=84 second=82 amount=1
kerning first=84 second=67 amount=-1
kerning first=84 second=66 amount=1
kerning first=84 second=84 amount=1
kerning first=84 second=89 amount=1
kerning first=84 second=69 amount=1
kerning first=84 second=90 amount=-1
kerning first=84 second=76 amount=1
kerning first=84 second=80 amount=1
kerning first=84 second=70 amount=1
kerning first=84 second=83 amount=1
kerning first=84 second=73 amount=1
kerning first=84 second=103 amount=-3
kerning first=84 second=113 amount=-3
kerning first=84 second=121 amount=-3
kerning first=84 second=112 amount=-3
kerning first=84 second=105 amount=-1
kerning first=84 second=116 amount=-1
kerning first=84 second=109 amount=-3
kerning first=84 second=110 amount=-3
kerning first=84 second=117 amount=-3
kerning first=84 second=120 amount=-3
kerning first=84 second=97 amount=-3
kerning first=84 second=111 amount=-3
kerning first=84 second=122 amount=-3
kerning first=84 second=101 amount=-3
kerning first=84 second=99 amount=-3
kerning first=84 second=114 amount=-3
kerning first=84 second=115 amount=-3
kerning first=84 second=119 amount=-3
kerning first=84 second=118 amount=-3
kerning first=84 second=44 amount=-3
kerning first=84 second=46 amount=-3
kerning first=84 second=45 amount=-3
kerning first=89 second=81 amount=-1
kerning first=89 second=106 amount=-1
kerning first=89 second=107 amount=-1
kerning first=89 second=104 amount=-1
kerning first=89 second=98 amount=-1
kerning first=89 second=100 amount=-3
kerning first=89 second=102 amount=-1
kerning first=89 second=108 amount=-1
kerning first=89 second=87 amount=1
kerning first=89 second=77 amount=1
kerning first=89 second=71 amount=-1
kerning first=89 second=68 amount=1
kerning first=89 second=85 amount=1
kerning first=89 second=72 amount=1
kerning first=89 second=86 amount=1
kerning first=89 second=65 amount=-3
kerning first=89 second=79 amount=-1
kerning first=89 second=78 amount=1
kerning first=89 second=88 amount=-1
kerning first=89 second=75 amount=1
kerning first=89 second=82 amount=1
kerning first=89 second=67 amount=-1
kerning first=89 second=66 amount=1
kerning first=89 second=84 amount=1
kerning first=89 second=89 amount=1
kerning first=89 second=69 amount=1
kerning first=89 second=90 amount=-1
kerning first=89 second=76 amount=1
kerning first=89 second=80 amount=1
kerning first=89 second=70 amount=1
kerning first=89 second=83 amount=1
kerning first=89 second=73 amount=1
kerning first=89 second=103 amount=-3
kerning first=89 second=113 amount=-3
kerning first=89 second=121 amount=-2
kerning first=89 second=112 amount=-3
kerning first=89 second=105 amount=-1
kerning first=89 second=116 amount=-2
kerning first=89 second=109 amount=-3
kerning first=89 second=110 amount=-3
kerning first=89 second=117 amount=-3
kerning first=89 second=120 amount=-3
kerning first=89 second=97 amount=-3
kerning first=89 second=111 amount=-3
kerning first=89 second=122 amount=-3
kerning first=89 second=101 amount=-3
kerning first=89 second=99 amount=-3
kerning first=89 second=114 amount=-3
kerning first=89 second=115 amount=-3
kerning first=89 second=119 amount=-2
kerning first=89 second=118 amount=-3
kerning first=89 second=44 amount=-3
kerning first=89 second=46 amount=-3
kerning first=89 second=45 amount=-3
kerning first=69 second=74 amount=1
kerning first=69 second=87 amount=-1
kerning first=69 second=77 amount=1
kerning first=69 second=68 amount=1
kerning first=69 second=85 amount=1
kerning first=69 second=72 amount=1
kerning first=69 second=86 amount=-1
kerning first=69 second=65 amount=-1
kerning first=69 second=78 amount=1
kerning first=69 second=75 amount=1
kerning first=69 second=82 amount=1
kerning first=69 second=66 amount=1
kerning first=69 second=84 amount=-1
kerning first=69 second=89 amount=-1
kerning first=69 second=69 amount=1
kerning first=69 second=90 amount=1
kerning first=69 second=76 amount=1
kerning first=69 second=80 amount=1
kerning first=69 second=70 amount=1
kerning first=69 second=83 amount=1
kerning first=69 second=73 amount=1
kerning first=69 second=121 amount=-1
kerning first=69 second=119 amount=-1
kerning first=69 second=118 amount=-1
kerning first=90 second=74 amount=2
kerning first=90 second=81 amount=1
kerning first=90 second=87 amount=1
kerning first=90 second=77 amount=2
kerning first=90 second=71 amount=1
kerning first=90 second=68 amount=2
kerning first=90 second=85 amount=2
kerning first=90 second=72 amount=2
kerning first=90 second=86 amount=1
kerning first=90 second=79 amount=1
kerning first=90 second=78 amount=2
kerning first=90 second=88 amount=1
kerning first=90 second=75 amount=2
kerning first=90 second=82 amount=2
kerning first=90 second=67 amount=1
kerning first=90 second=66 amount=2
kerning first=90 second=84 amount=1
kerning first=90 second=89 amount=1
kerning first=90 second=69 amount=2
kerning first=90 second=90 amount=2
kerning first=90 second=76 amount=2
kerning first=90 second=80 amount=2
kerning first=90 second=70 amount=2
kerning first=90 second=83 amount=2
kerning first=90 second=73 amount=2
kerning first=90 second=121 amount=-1
kerning first=90 second=47 amount=2
kerning first=90 second=117 amount=-1
kerning first=90 second=119 amount=-2
kerning first=90 second=118 amount=-1
kerning first=76 second=74 amount=-2
kerning first=76 second=81 amount=-1
kerning first=76 second=87 amount=-4
kerning first=76 second=71 amount=-1
kerning first=76 second=85 amount=-1
kerning first=76 second=86 amount=-5
kerning first=76 second=79 amount=-1
kerning first=76 second=67 amount=-1
kerning first=76 second=84 amount=-4
kerning first=76 second=89 amount=-4
kerning first=76 second=63 amount=-4
kerning first=76 second=121 amount=-2
kerning first=76 second=119 amount=-2
kerning first=76 second=118 amount=-2
kerning first=80 second=81 amount=1
kerning first=80 second=100 amount=-1
kerning first=80 second=77 amount=2
kerning first=80 second=71 amount=1
kerning first=80 second=68 amount=2
kerning first=80 second=85 amount=2
kerning first=80 second=72 amount=2
kerning first=80 second=65 amount=-3
kerning first=80 second=79 amount=1
kerning first=80 second=78 amount=2
kerning first=80 second=88 amount=-1
kerning first=80 second=75 amount=2
kerning first=80 second=82 amount=2
kerning first=80 second=67 amount=1
kerning first=80 second=66 amount=2
kerning first=80 second=84 amount=1
kerning first=80 second=69 amount=2
kerning first=80 second=76 amount=2
kerning first=80 second=80 amount=2
kerning first=80 second=70 amount=2
kerning first=80 second=83 amount=2
kerning first=80 second=73 amount=2
kerning first=80 second=103 amount=-1
kerning first=80 second=113 amount=-1
kerning first=80 second=47 amount=2
kerning first=80 second=97 amount=-1
kerning first=80 second=111 amount=-1
kerning first=80 second=101 amount=-1
kerning first=80 second=99 amount=-1
kerning first=80 second=44 amount=-3
kerning first=80 second=46 amount=-3
kerning first=70 second=81 amount=1
kerning first=70 second=106 amount=-1
kerning first=70 second=100 amount=-1
kerning first=70 second=108 amount=-1
kerning first=70 second=77 amount=2
kerning first=70 second=71 amount=1
kerning first=70 second=68 amount=2
kerning first=70 second=85 amount=2
kerning first=70 second=72 amount=2
kerning first=70 second=65 amount=-3
kerning first=70 second=79 amount=1
kerning first=70 second=78 amount=2
kerning first=70 second=75 amount=2
kerning first=70 second=82 amount=2
kerning first=70 second=67 amount=1
kerning first=70 second=66 amount=2
kerning first=70 second=69 amount=2
kerning first=70 second=76 amount=2
kerning first=70 second=80 amount=2
kerning first=70 second=70 amount=2
kerning first=70 second=83 amount=1
kerning first=70 second=73 amount=2
kerning first=70 second=103 amount=-1
kerning first=70 second=113 amount=-1
kerning first=70 second=121 amount=-1
kerning first=70 second=105 amount=-1
kerning first=70 second=47 amount=2
kerning first=70 second=117 amount=-1
kerning first=70 second=97 amount=-1
kerning first=70 second=111 amount=-1
kerning first=70 second=101 amount=-1
kerning first=70 second=99 amount=-1
kerning first=70 second=114 amount=-1
kerning first=70 second=44 amount=-3
kerning first=70 second=46 amount=-3
kerning first=52 second=52 amount=1
kerning first=52 second=57 amount=1
kerning first=52 second=56 amount=1
kerning first=52 second=48 amount=1
kerning first=52 second=54 amount=1
kerning first=52 second=55 amount=-2
kerning first=52 second=49 amount=1
kerning first=83 second=87 amount=-2
kerning first=83 second=86 amount=-2
kerning first=83 second=65 amount=-2
kerning first=83 second=84 amount=-2
kerning first=83 second=89 amount=-2
kerning first=83 second=63 amount=-2
kerning first=83 second=121 amount=-2
kerning first=83 second=122 amount=-2
kerning first=83 second=119 amount=-2
kerning first=83 second=118 amount=-2
kerning first=57 second=52 amount=1
kerning first=57 second=57 amount=1
kerning first=57 second=56 amount=1
kerning first=57 second=48 amount=1
kerning first=57 second=54 amount=1
kerning first=57 second=55 amount=-2
kerning first=57 second=49 amount=1
kerning first=56 second=52 amount=1
kerning first=56 second=57 amount=1
kerning first=56 second=56 amount=1
kerning first=56 second=48 amount=1
kerning first=56 second=54 amount=1
kerning first=56 second=55 amount=-2
kerning first=56 second=49 amount=1
kerning first=48 second=52 amount=1
kerning first=48 second=57 amount=1
kerning first=48 second=56 amount=1
kerning first=48 second=54 amount=1
kerning first=48 second=55 amount=-2
kerning first=48 second=49 amount=1
kerning first=54 second=52 amount=1
kerning first=54 second=57 amount=1
kerning first=54 second=56 amount=1
kerning first=54 second=48 amount=1
kerning first=54 second=54 amount=1
kerning first=54 second=55 amount=-2
kerning first=54 second=49 amount=1
kerning first=51 second=52 amount=1
kerning first=51 second=57 amount=1
kerning first=51 second=56 amount=1
kerning first=51 second=48 amount=1
kerning first=51 second=54 amount=1
kerning first=51 second=55 amount=-1
kerning first=51 second=49 amount=1
kerning first=50 second=52 amount=1
kerning first=50 second=57 amount=1
kerning first=50 second=56 amount=1
kerning first=50 second=48 amount=1
kerning first=50 second=54 amount=1
kerning first=50 second=55 amount=-1
kerning first=50 second=49 amount=1
kerning first=53 second=52 amount=1
kerning first=53 second=57 amount=1
kerning first=53 second=56 amount=1
kerning first=53 second=48 amount=1
kerning first=53 second=54 amount=1
kerning first=53 second=55 amount=-2
kerning first=53 second=49 amount=1
kerning first=55 second=52 amount=-3
kerning first=55 second=57 amount=-2
kerning first=55 second=56 amount=-2
kerning first=55 second=48 amount=-2
kerning first=55 second=54 amount=-1
kerning first=55 second=51 amount=-1
kerning first=55 second=53 amount=-1
kerning first=55 second=55 amount=-2
kerning first=55 second=49 amount=-1
kerning first=55 second=47 amount=-3
kerning first=55 second=43 amount=-2
kerning first=55 second=44 amount=-5
kerning first=55 second=46 amount=-5
kerning first=55 second=45 amount=-2
kerning first=73 second=74 amount=2
kerning first=73 second=81 amount=1
kerning first=73 second=87 amount=1
kerning first=73 second=77 amount=2
kerning first=73 second=71 amount=1
kerning first=73 second=68 amount=2
kerning first=73 second=85 amount=2
kerning first=73 second=72 amount=2
kerning first=73 second=86 amount=1
kerning first=73 second=79 amount=1
kerning first=73 second=78 amount=2
kerning first=73 second=88 amount=1
kerning first=73 second=75 amount=2
kerning first=73 second=82 amount=2
kerning first=73 second=67 amount=1
kerning first=73 second=66 amount=2
kerning first=73 second=84 amount=1
kerning first=73 second=89 amount=1
kerning first=73 second=69 amount=2
kerning first=73 second=90 amount=2
kerning first=73 second=76 amount=2
kerning first=73 second=80 amount=2
kerning first=73 second=70 amount=2
kerning first=73 second=83 amount=2
kerning first=73 second=73 amount=2
kerning first=73 second=121 amount=-1
kerning first=73 second=47 amount=2
kerning first=73 second=119 amount=-1
kerning first=73 second=118 amount=-1
kerning first=103 second=115 amount=1
kerning first=121 second=103 amount=-1
kerning first=121 second=97 amount=-1
kerning first=121 second=111 amount=-1
kerning first=121 second=99 amount=-1
kerning first=121 second=44 amount=-2
kerning first=121 second=46 amount=-2
kerning first=47 second=74 amount=2
kerning first=47 second=77 amount=2
kerning first=47 second=68 amount=2
kerning first=47 second=85 amount=2
kerning first=47 second=72 amount=2
kerning first=47 second=78 amount=2
kerning first=47 second=75 amount=2
kerning first=47 second=82 amount=2
kerning first=47 second=66 amount=2
kerning first=47 second=69 amount=2
kerning first=47 second=90 amount=2
kerning first=47 second=76 amount=2
kerning first=47 second=80 amount=2
kerning first=47 second=70 amount=2
kerning first=47 second=52 amount=-2
kerning first=47 second=83 amount=2
kerning first=47 second=73 amount=2
kerning first=111 second=120 amount=-1
kerning first=111 second=115 amount=1
kerning first=101 second=115 amount=1
kerning first=99 second=107 amount=-1
kerning first=99 second=104 amount=-1
kerning first=99 second=97 amount=1
kerning first=114 second=121 amount=1
kerning first=114 second=105 amount=1
kerning first=114 second=109 amount=1
kerning first=114 second=110 amount=1
kerning first=114 second=115 amount=1
kerning first=114 second=119 amount=1
kerning first=114 second=118 amount=1
kerning first=114 second=44 amount=-2
kerning first=114 second=46 amount=-2
kerning first=119 second=44 amount=-2
kerning first=119 second=46 amount=-2
kerning first=118 second=44 amount=-2
kerning first=118 second=46 amount=-2
kerning first=42 second=65 amount=-5
kerning first=46 second=42 amount=-4
kerning first=45 second=87 amount=-3
kerning first=45 second=86 amount=-3
kerning first=45 second=84 amount=-3
kerning first=45 second=89 amount=-3
